module gitlab.com/gitlab-org/gitlab-terminal

go 1.16

require (
	github.com/gorilla/websocket v1.4.2
	github.com/sirupsen/logrus v1.8.1
	github.com/stretchr/testify v1.2.2
	golang.org/x/text v0.3.7
)
